[
  {
    "directory": "/home/y/下载/gst-plugins-bad/tools/gst-itaholefillleft/a",
    "command": "cc  -Iplugins/gstitaholefillleft@sha -Iplugins -I../plugins -I. -I../ -I/usr/include/gstreamer-1.0 -I/usr/include/glib-2.0 -I/usr/lib/x86_64-linux-gnu/glib-2.0/include -I/usr/include/orc-0.4 -fdiagnostics-color=always -pipe -D_FILE_OFFSET_BITS=64 -Wall -Winvalid-pch -O2 -g -fPIC -pthread -DHAVE_CONFIG_H -MD -MQ 'plugins/gstitaholefillleft@sha/gstitaholefillleftplugin.c.o' -MF 'plugins/gstitaholefillleft@sha/gstitaholefillleftplugin.c.o.d' -o 'plugins/gstitaholefillleft@sha/gstitaholefillleftplugin.c.o' -c ../plugins/gstitaholefillleftplugin.c",
    "file": "../plugins/gstitaholefillleftplugin.c"
  },
  {
    "directory": "/home/y/下载/gst-plugins-bad/tools/gst-itaholefillleft/a",
    "command": "cc  -Iplugins/gstitaholefillleft@sha -Iplugins -I../plugins -I. -I../ -I/usr/include/gstreamer-1.0 -I/usr/include/glib-2.0 -I/usr/lib/x86_64-linux-gnu/glib-2.0/include -I/usr/include/orc-0.4 -fdiagnostics-color=always -pipe -D_FILE_OFFSET_BITS=64 -Wall -Winvalid-pch -O2 -g -fPIC -pthread -DHAVE_CONFIG_H -MD -MQ 'plugins/gstitaholefillleft@sha/gstitaholefillleft.c.o' -MF 'plugins/gstitaholefillleft@sha/gstitaholefillleft.c.o.d' -o 'plugins/gstitaholefillleft@sha/gstitaholefillleft.c.o' -c ../plugins/gstitaholefillleft.c",
    "file": "../plugins/gstitaholefillleft.c"
  },
  {
    "directory": "/home/y/下载/gst-plugins-bad/tools/gst-itaholefillleft/a",
    "command": "cc  -Itools/gstitaholefillleft@exe -Itools -I../tools -I. -I../ -I/usr/include/gstreamer-1.0 -I/usr/include/glib-2.0 -I/usr/lib/x86_64-linux-gnu/glib-2.0/include -fdiagnostics-color=always -pipe -D_FILE_OFFSET_BITS=64 -Wall -Winvalid-pch -O2 -g -pthread -DHAVE_CONFIG_H -MD -MQ 'tools/gstitaholefillleft@exe/gstitaholefillleft.c.o' -MF 'tools/gstitaholefillleft@exe/gstitaholefillleft.c.o.d' -o 'tools/gstitaholefillleft@exe/gstitaholefillleft.c.o' -c ../tools/gstitaholefillleft.c",
    "file": "../tools/gstitaholefillleft.c"
  }
]
